…
# calculate mean, SD, count, SE, lower/upper 95% CI for net approval rate
  summarise(
    mean_NAR = mean(net_approval_rate,na.rm=TRUE),
    sd_NAR = sd(net_approval_rate,na.rm=TRUE),
    count = n(),
    se_NAR = sd_NAR/ sqrt(count),
    t_critical = qt(0.975, count - 1 ),
    lower = mean_NAR - qnorm(0.975) * se_NAR,
    upper = mean_NAR + qnorm(0.975) * se_NAR
  ) 

#print table
mydata2

## # A tibble: 40 × 8
##     week mean_NAR sd_NAR count se_NAR t_critical lower upper
##    <dbl>    <dbl>  <dbl> <int>  <dbl>      <dbl> <dbl> <dbl>
##  1     3     18.6   8.23    11   2.48       2.23  13.8  23.5
##  2     4     18.5   8.94    51   1.25       2.01  16.0  20.9
##  3     5     16.7   7.59    54   1.03       2.01  14.7  18.7
##  4     6     16.6   8.16    37   1.34       2.03  14.0  19.3
##  5     7     16.3   7.34    50   1.04       2.01  14.3  18.4
##  6     8     15.0   7.77    50   1.10       2.01  12.8  17.1
##  7     9     13.4   7.46    53   1.02       2.01  11.3  15.4
##  8    10     12.9   7.08    49   1.01       2.01  11.0  14.9
##  9    11     15.8   7.45    43   1.14       2.02  13.5  18.0
## 10    12     14.7   9.32    57   1.23       2.00  12.3  17.2
## # … with 30 more rows
…
