…
summarise_monthly_returns <- myStocks_returns_monthly %>% 
  #Consolidate data frame by symbol
  group_by(symbol) %>% 

  #Collapse data by calculating summary statistics  
  summarize(
    min = min(monthly_returns, na.rm = TRUE),
    median = quantile(monthly_returns, 0.5, na.rm = TRUE),
    max = max(monthly_returns, na.rm = TRUE),
    mean = mean(monthly_returns, na.rm = TRUE),
    sd = sd(monthly_returns, na.rm = TRUE))
summarise_monthly_returns

## # A tibble: 31 × 6
##    symbol    min  median   max    mean     sd
##    <chr>   <dbl>   <dbl> <dbl>   <dbl>  <dbl>
##  1 AAPL   -0.577 0.0347  0.454 0.0268  0.115 
##  2 AMGN   -0.170 0.00856 0.328 0.00805 0.0732
##  3 AXP    -0.279 0.0109  0.875 0.0101  0.0921
##  4 BA     -0.458 0.0165  0.459 0.0126  0.0925
##  5 CAT    -0.353 0.0141  0.350 0.0143  0.0898
##  6 CRM    -0.360 0.0205  0.403 0.0262  0.110 
##  7 CSCO   -0.367 0.0125  0.389 0.00602 0.0962
##  8 CVX    -0.224 0.0108  0.273 0.00883 0.0653
##  9 DIS    -0.268 0.0100  0.234 0.0104  0.0737
## 10 DOW    -0.276 0.0311  0.255 0.0155  0.109 
## # … with 21 more rows
…
